[gd_resource type="DynamicFont" load_steps=2 format=2]

[ext_resource path="res://assets/fonts/Silver.ttf" type="DynamicFontData" id=1]

[resource]
size = 18
extra_spacing_top = -10
font_data = ExtResource( 1 )
