{
	"color": "#ffffffff",
	"description": "",
	"display_name": "",
	"display_name_bool": false,
	"id": "character-1657311606.json",
	"mirror_portraits": false,
	"name": "Samurai",
	"nickname": "",
	"nickname_bool": false,
	"offset_x": 0,
	"offset_y": 0,
	"portraits": [
		{
			"name": "Default",
			"path": ""
		}
	],
	"scale": 100,
	"theme": "theme-1657311623.cfg"
}
