[gd_resource type="TileSet" load_steps=47 format=2]

[ext_resource path="res://assets/tilesets/jungle_deep.png" type="Texture" id=1]

[sub_resource type="ConvexPolygonShape2D" id=2]
points = PoolVector2Array( 0, 2, 16, 2, 16, 16, 0, 16 )

[sub_resource type="ConvexPolygonShape2D" id=3]
points = PoolVector2Array( 0, 2, 16, 2, 16, 16, 0, 16 )

[sub_resource type="ConvexPolygonShape2D" id=4]
points = PoolVector2Array( 0, 2, 16, 2, 16, 16, 0, 16 )

[sub_resource type="ConvexPolygonShape2D" id=5]
points = PoolVector2Array( 0, 2, 15, 2, 15, 16, 0, 16 )

[sub_resource type="ConvexPolygonShape2D" id=6]
points = PoolVector2Array( 1, 2, 16, 2, 16, 16, 1, 16 )

[sub_resource type="ConvexPolygonShape2D" id=7]
points = PoolVector2Array( 0, 2, 15, 2, 15, 16, 0, 16 )

[sub_resource type="ConvexPolygonShape2D" id=8]
points = PoolVector2Array( 1, 0, 16, 0, 16, 16, 1, 16 )

[sub_resource type="ConvexPolygonShape2D" id=9]
points = PoolVector2Array( 0, 0, 15, 0, 15, 16, 0, 16 )

[sub_resource type="ConvexPolygonShape2D" id=10]
points = PoolVector2Array( 0, 0, 16, 0, 16, 16, 0, 16 )

[sub_resource type="ConvexPolygonShape2D" id=11]
points = PoolVector2Array( 0, 0, 15, 0, 15, 16, 0, 16 )

[sub_resource type="ConvexPolygonShape2D" id=12]
points = PoolVector2Array( 0, 0, 16, 0, 16, 16, 0, 16 )

[sub_resource type="ConvexPolygonShape2D" id=13]
points = PoolVector2Array( 0, 0, 16, 0, 16, 16, 0, 16 )

[sub_resource type="ConvexPolygonShape2D" id=14]
points = PoolVector2Array( 1, 0, 16, 0, 16, 16, 1, 16 )

[sub_resource type="ConvexPolygonShape2D" id=15]
points = PoolVector2Array( 1, 0, 16, 0, 16, 16, 1, 16 )

[sub_resource type="ConvexPolygonShape2D" id=16]
points = PoolVector2Array( 0, 0, 16, 0, 16, 16, 0, 16 )

[sub_resource type="ConvexPolygonShape2D" id=17]
points = PoolVector2Array( 0, 0, 16, 0, 16, 16, 0, 16 )

[sub_resource type="ConvexPolygonShape2D" id=18]
points = PoolVector2Array( 0, 0, 16, 0, 16, 16, 0, 16 )

[sub_resource type="ConvexPolygonShape2D" id=19]
points = PoolVector2Array( 0, 0, 15, 0, 15, 16, 0, 16 )

[sub_resource type="ConvexPolygonShape2D" id=20]
points = PoolVector2Array( 1, 1, 16, 1, 16, 16, 1, 16 )

[sub_resource type="ConvexPolygonShape2D" id=21]
points = PoolVector2Array( 0, 1, 15, 1, 15, 16, 0, 16 )

[sub_resource type="ConvexPolygonShape2D" id=22]
points = PoolVector2Array( 0, 0, 15, 0, 15, 15, 0, 15 )

[sub_resource type="ConvexPolygonShape2D" id=23]
points = PoolVector2Array( 1, 0, 16, 0, 16, 15, 1, 15 )

[sub_resource type="ConvexPolygonShape2D" id=24]
points = PoolVector2Array( 0, 0, 15, 0, 15, 16, 0, 16 )

[sub_resource type="ConvexPolygonShape2D" id=25]
points = PoolVector2Array( 0, 0, 16, 0, 16, 16, 0, 16 )

[sub_resource type="ConvexPolygonShape2D" id=26]
points = PoolVector2Array( 0, 0, 16, 0, 16, 16, 0, 16 )

[sub_resource type="ConvexPolygonShape2D" id=27]
points = PoolVector2Array( 0, 0, 16, 0, 16, 16, 0, 16 )

[sub_resource type="ConvexPolygonShape2D" id=28]
points = PoolVector2Array( 1, 0, 16, 0, 16, 16, 1, 16 )

[sub_resource type="ConvexPolygonShape2D" id=29]
points = PoolVector2Array( 1, 0, 16, 0, 16, 14, 1, 14 )

[sub_resource type="ConvexPolygonShape2D" id=30]
points = PoolVector2Array( 0, 0, 16, 0, 16, 14, 0, 14 )

[sub_resource type="ConvexPolygonShape2D" id=31]
points = PoolVector2Array( 0, 0, 16, 0, 16, 14, 0, 14 )

[sub_resource type="ConvexPolygonShape2D" id=32]
points = PoolVector2Array( 0, 0, 16, 0, 16, 14, 0, 14 )

[sub_resource type="ConvexPolygonShape2D" id=33]
points = PoolVector2Array( 0, 0, 15, 0, 15, 14, 0, 14 )

[sub_resource type="ConvexPolygonShape2D" id=34]
points = PoolVector2Array( 1, 0, 16, 0, 16, 16, 1, 16 )

[sub_resource type="ConvexPolygonShape2D" id=35]
points = PoolVector2Array( 0, 0, 15, 0, 15, 16, 0, 16 )

[sub_resource type="ConvexPolygonShape2D" id=36]
points = PoolVector2Array( 0, 0, 15, 0, 15, 14, 0, 14 )

[sub_resource type="ConvexPolygonShape2D" id=37]
points = PoolVector2Array( 1, 0, 16, 0, 16, 14, 1, 14 )

[sub_resource type="ConvexPolygonShape2D" id=38]
points = PoolVector2Array( 0, 2, 15, 2, 15, 16, 0, 16 )

[sub_resource type="ConvexPolygonShape2D" id=39]
points = PoolVector2Array( 0, 2, 16, 2, 16, 16, 0, 16 )

[sub_resource type="ConvexPolygonShape2D" id=40]
points = PoolVector2Array( 0, 2, 16, 2, 16, 16, 0, 16 )

[sub_resource type="ConvexPolygonShape2D" id=41]
points = PoolVector2Array( 1, 2, 16, 2, 16, 16, 1, 16 )

[sub_resource type="ConvexPolygonShape2D" id=42]
points = PoolVector2Array( 1, 0, 16, 0, 16, 14, 1, 14 )

[sub_resource type="ConvexPolygonShape2D" id=43]
points = PoolVector2Array( 0, 0, 16, 0, 16, 14, 0, 14 )

[sub_resource type="ConvexPolygonShape2D" id=44]
points = PoolVector2Array( 0, 0, 16, 0, 16, 14, 0, 14 )

[sub_resource type="ConvexPolygonShape2D" id=45]
points = PoolVector2Array( 0, 0, 15, 0, 15, 14, 0, 14 )

[sub_resource type="ConvexPolygonShape2D" id=46]
points = PoolVector2Array( 1, 2, 16, 2, 16, 16, 1, 16 )

[resource]
0/name = "jungle_deep.png 0"
0/texture = ExtResource( 1 )
0/tex_offset = Vector2( 0, 0 )
0/modulate = Color( 1, 1, 1, 1 )
0/region = Rect2( 0, 0, 112, 112 )
0/tile_mode = 1
0/autotile/bitmask_mode = 1
0/autotile/bitmask_flags = [  ]
0/autotile/icon_coordinate = Vector2( 2, 0 )
0/autotile/tile_size = Vector2( 16, 16 )
0/autotile/spacing = 0
0/autotile/occluder_map = [  ]
0/autotile/navpoly_map = [  ]
0/autotile/priority_map = [  ]
0/autotile/z_index_map = [  ]
0/occluder_offset = Vector2( 0, 0 )
0/navigation_offset = Vector2( 0, 0 )
0/shape_offset = Vector2( 0, 0 )
0/shape_transform = Transform2D( 1, 0, 0, 1, 0, 0 )
0/shape = SubResource( 2 )
0/shape_one_way = false
0/shape_one_way_margin = 1.0
0/shapes = [ {
"autotile_coord": Vector2( 1, 0 ),
"one_way": false,
"one_way_margin": 1.0,
"shape": SubResource( 2 ),
"shape_transform": Transform2D( 1, 0, 0, 1, 0, 0 )
}, {
"autotile_coord": Vector2( 2, 0 ),
"one_way": false,
"one_way_margin": 1.0,
"shape": SubResource( 3 ),
"shape_transform": Transform2D( 1, 0, 0, 1, 0, 0 )
}, {
"autotile_coord": Vector2( 3, 0 ),
"one_way": false,
"one_way_margin": 1.0,
"shape": SubResource( 4 ),
"shape_transform": Transform2D( 1, 0, 0, 1, 0, 0 )
}, {
"autotile_coord": Vector2( 4, 0 ),
"one_way": false,
"one_way_margin": 1.0,
"shape": SubResource( 5 ),
"shape_transform": Transform2D( 1, 0, 0, 1, 0, 0 )
}, {
"autotile_coord": Vector2( 5, 0 ),
"one_way": false,
"one_way_margin": 1.0,
"shape": SubResource( 6 ),
"shape_transform": Transform2D( 1, 0, 0, 1, 0, 0 )
}, {
"autotile_coord": Vector2( 6, 0 ),
"one_way": false,
"one_way_margin": 1.0,
"shape": SubResource( 7 ),
"shape_transform": Transform2D( 1, 0, 0, 1, 0, 0 )
}, {
"autotile_coord": Vector2( 5, 1 ),
"one_way": false,
"one_way_margin": 1.0,
"shape": SubResource( 8 ),
"shape_transform": Transform2D( 1, 0, 0, 1, 0, 0 )
}, {
"autotile_coord": Vector2( 6, 1 ),
"one_way": false,
"one_way_margin": 1.0,
"shape": SubResource( 9 ),
"shape_transform": Transform2D( 1, 0, 0, 1, 0, 0 )
}, {
"autotile_coord": Vector2( 3, 1 ),
"one_way": false,
"one_way_margin": 1.0,
"shape": SubResource( 10 ),
"shape_transform": Transform2D( 1, 0, 0, 1, 0, 0 )
}, {
"autotile_coord": Vector2( 4, 1 ),
"one_way": false,
"one_way_margin": 1.0,
"shape": SubResource( 11 ),
"shape_transform": Transform2D( 1, 0, 0, 1, 0, 0 )
}, {
"autotile_coord": Vector2( 2, 1 ),
"one_way": false,
"one_way_margin": 1.0,
"shape": SubResource( 12 ),
"shape_transform": Transform2D( 1, 0, 0, 1, 0, 0 )
}, {
"autotile_coord": Vector2( 1, 1 ),
"one_way": false,
"one_way_margin": 1.0,
"shape": SubResource( 13 ),
"shape_transform": Transform2D( 1, 0, 0, 1, 0, 0 )
}, {
"autotile_coord": Vector2( 0, 1 ),
"one_way": false,
"one_way_margin": 1.0,
"shape": SubResource( 14 ),
"shape_transform": Transform2D( 1, 0, 0, 1, 0, 0 )
}, {
"autotile_coord": Vector2( 0, 2 ),
"one_way": false,
"one_way_margin": 1.0,
"shape": SubResource( 15 ),
"shape_transform": Transform2D( 1, 0, 0, 1, 0, 0 )
}, {
"autotile_coord": Vector2( 1, 2 ),
"one_way": false,
"one_way_margin": 1.0,
"shape": SubResource( 16 ),
"shape_transform": Transform2D( 1, 0, 0, 1, 0, 0 )
}, {
"autotile_coord": Vector2( 2, 2 ),
"one_way": false,
"one_way_margin": 1.0,
"shape": SubResource( 17 ),
"shape_transform": Transform2D( 1, 0, 0, 1, 0, 0 )
}, {
"autotile_coord": Vector2( 3, 2 ),
"one_way": false,
"one_way_margin": 1.0,
"shape": SubResource( 18 ),
"shape_transform": Transform2D( 1, 0, 0, 1, 0, 0 )
}, {
"autotile_coord": Vector2( 4, 2 ),
"one_way": false,
"one_way_margin": 1.0,
"shape": SubResource( 19 ),
"shape_transform": Transform2D( 1, 0, 0, 1, 0, 0 )
}, {
"autotile_coord": Vector2( 5, 2 ),
"one_way": false,
"one_way_margin": 1.0,
"shape": SubResource( 20 ),
"shape_transform": Transform2D( 1, 0, 0, 1, 0, 0 )
}, {
"autotile_coord": Vector2( 6, 2 ),
"one_way": false,
"one_way_margin": 1.0,
"shape": SubResource( 21 ),
"shape_transform": Transform2D( 1, 0, 0, 1, 0, 0 )
}, {
"autotile_coord": Vector2( 6, 3 ),
"one_way": false,
"one_way_margin": 1.0,
"shape": SubResource( 22 ),
"shape_transform": Transform2D( 1, 0, 0, 1, 0, 0 )
}, {
"autotile_coord": Vector2( 5, 3 ),
"one_way": false,
"one_way_margin": 1.0,
"shape": SubResource( 23 ),
"shape_transform": Transform2D( 1, 0, 0, 1, 0, 0 )
}, {
"autotile_coord": Vector2( 4, 3 ),
"one_way": false,
"one_way_margin": 1.0,
"shape": SubResource( 24 ),
"shape_transform": Transform2D( 1, 0, 0, 1, 0, 0 )
}, {
"autotile_coord": Vector2( 3, 3 ),
"one_way": false,
"one_way_margin": 1.0,
"shape": SubResource( 25 ),
"shape_transform": Transform2D( 1, 0, 0, 1, 0, 0 )
}, {
"autotile_coord": Vector2( 2, 3 ),
"one_way": false,
"one_way_margin": 1.0,
"shape": SubResource( 26 ),
"shape_transform": Transform2D( 1, 0, 0, 1, 0, 0 )
}, {
"autotile_coord": Vector2( 1, 3 ),
"one_way": false,
"one_way_margin": 1.0,
"shape": SubResource( 27 ),
"shape_transform": Transform2D( 1, 0, 0, 1, 0, 0 )
}, {
"autotile_coord": Vector2( 0, 3 ),
"one_way": false,
"one_way_margin": 1.0,
"shape": SubResource( 28 ),
"shape_transform": Transform2D( 1, 0, 0, 1, 0, 0 )
}, {
"autotile_coord": Vector2( 0, 4 ),
"one_way": false,
"one_way_margin": 1.0,
"shape": SubResource( 29 ),
"shape_transform": Transform2D( 1, 0, 0, 1, 0, 0 )
}, {
"autotile_coord": Vector2( 1, 4 ),
"one_way": false,
"one_way_margin": 1.0,
"shape": SubResource( 30 ),
"shape_transform": Transform2D( 1, 0, 0, 1, 0, 0 )
}, {
"autotile_coord": Vector2( 2, 4 ),
"one_way": false,
"one_way_margin": 1.0,
"shape": SubResource( 31 ),
"shape_transform": Transform2D( 1, 0, 0, 1, 0, 0 )
}, {
"autotile_coord": Vector2( 3, 4 ),
"one_way": false,
"one_way_margin": 1.0,
"shape": SubResource( 32 ),
"shape_transform": Transform2D( 1, 0, 0, 1, 0, 0 )
}, {
"autotile_coord": Vector2( 4, 4 ),
"one_way": false,
"one_way_margin": 1.0,
"shape": SubResource( 33 ),
"shape_transform": Transform2D( 1, 0, 0, 1, 0, 0 )
}, {
"autotile_coord": Vector2( 5, 4 ),
"one_way": false,
"one_way_margin": 1.0,
"shape": SubResource( 34 ),
"shape_transform": Transform2D( 1, 0, 0, 1, 0, 0 )
}, {
"autotile_coord": Vector2( 6, 4 ),
"one_way": false,
"one_way_margin": 1.0,
"shape": SubResource( 35 ),
"shape_transform": Transform2D( 1, 0, 0, 1, 0, 0 )
}, {
"autotile_coord": Vector2( 6, 5 ),
"one_way": false,
"one_way_margin": 1.0,
"shape": SubResource( 36 ),
"shape_transform": Transform2D( 1, 0, 0, 1, 0, 0 )
}, {
"autotile_coord": Vector2( 5, 5 ),
"one_way": false,
"one_way_margin": 1.0,
"shape": SubResource( 37 ),
"shape_transform": Transform2D( 1, 0, 0, 1, 0, 0 )
}, {
"autotile_coord": Vector2( 3, 5 ),
"one_way": false,
"one_way_margin": 1.0,
"shape": SubResource( 38 ),
"shape_transform": Transform2D( 1, 0, 0, 1, 0, 0 )
}, {
"autotile_coord": Vector2( 2, 5 ),
"one_way": false,
"one_way_margin": 1.0,
"shape": SubResource( 39 ),
"shape_transform": Transform2D( 1, 0, 0, 1, 0, 0 )
}, {
"autotile_coord": Vector2( 1, 5 ),
"one_way": false,
"one_way_margin": 1.0,
"shape": SubResource( 40 ),
"shape_transform": Transform2D( 1, 0, 0, 1, 0, 0 )
}, {
"autotile_coord": Vector2( 0, 5 ),
"one_way": false,
"one_way_margin": 1.0,
"shape": SubResource( 41 ),
"shape_transform": Transform2D( 1, 0, 0, 1, 0, 0 )
}, {
"autotile_coord": Vector2( 0, 6 ),
"one_way": false,
"one_way_margin": 1.0,
"shape": SubResource( 42 ),
"shape_transform": Transform2D( 1, 0, 0, 1, 0, 0 )
}, {
"autotile_coord": Vector2( 1, 6 ),
"one_way": false,
"one_way_margin": 1.0,
"shape": SubResource( 43 ),
"shape_transform": Transform2D( 1, 0, 0, 1, 0, 0 )
}, {
"autotile_coord": Vector2( 2, 6 ),
"one_way": false,
"one_way_margin": 1.0,
"shape": SubResource( 44 ),
"shape_transform": Transform2D( 1, 0, 0, 1, 0, 0 )
}, {
"autotile_coord": Vector2( 3, 6 ),
"one_way": false,
"one_way_margin": 1.0,
"shape": SubResource( 45 ),
"shape_transform": Transform2D( 1, 0, 0, 1, 0, 0 )
}, {
"autotile_coord": Vector2( 0, 0 ),
"one_way": false,
"one_way_margin": 1.0,
"shape": SubResource( 46 ),
"shape_transform": Transform2D( 1, 0, 0, 1, 0, 0 )
} ]
0/z_index = 0
