[gd_scene load_steps=7 format=2]

[ext_resource path="res://src/Actors/Pnj.tscn" type="PackedScene" id=1]
[ext_resource path="res://src/Actors/Pnj/Samurai.gd" type="Script" id=2]
[ext_resource path="res://assets/martial_hero.png" type="Texture" id=3]

[sub_resource type="RectangleShape2D" id=2]
extents = Vector2( 10.5, 19.5 )

[sub_resource type="Animation" id=1]
resource_name = "idle"
length = 1.6
loop = true
step = 0.2
tracks/0/type = "value"
tracks/0/path = NodePath("Sprite:frame")
tracks/0/interp = 1
tracks/0/loop_wrap = true
tracks/0/imported = false
tracks/0/enabled = true
tracks/0/keys = {
"times": PoolRealArray( 0, 0.2, 0.4, 0.6, 0.8, 1, 1.2, 1.4 ),
"transitions": PoolRealArray( 1, 1, 1, 1, 1, 1, 1, 1 ),
"update": 1,
"values": [ 0, 1, 2, 3, 4, 5, 6, 7 ]
}

[sub_resource type="RectangleShape2D" id=3]

[node name="Samurai" instance=ExtResource( 1 )]
script = ExtResource( 2 )
dialog_timeline = "Samurai"

[node name="Sprite" parent="." index="0"]
texture = ExtResource( 3 )
hframes = 8

[node name="ActorCollisionShape2D" parent="." index="1"]
position = Vector2( 0.5, 2.5 )
shape = SubResource( 2 )

[node name="AnimationPlayer" parent="." index="2"]
anims/idle = SubResource( 1 )

[node name="DashTimer" parent="." index="5"]
one_shot = false

[node name="AttackBox" parent="." index="10"]
collision_layer = 1
collision_mask = 1

[node name="AttackBoxShape2D" parent="AttackBox" index="0"]
modulate = Color( 1, 1, 1, 1 )
shape = SubResource( 3 )
